Block Size (s),NumProcs,Average Block Time,Average Single Time

2,2,0.0338603,0.0452342

2,4,0.00935421,0.012041

2,8,0.00333851,0.00425706

2,16,0.00146719,0.00176117

5,2,0.0752165,0.113084

5,4,0.0203416,0.0301018

5,8,0.007693,0.0106154

5,16,0.00381937,0.0045009

10,2,0.140746,0.226769

10,4,0.0437987,0.0643591

10,8,0.0160407,0.0229246

10,16,0.00647132,0.00899525
